{
  "swagger": "2.0",
  "info": {
    "description": "Add/Delete camel route and send message to AMQ through producer route configured and Add/delete a route dynamically to consume messsages from AMQ",
    "version": "v1",
    "title": "Add/Delete a camel route and push message to AMQ and Add/delete a route to consume message from AMQ",
    "contact": {
      "name": "Tanya Liza",
      "url": "http://ferguson.com",
      "email": "tanya.liza@ferguson.com"
    },
    "license": {
      "name": "Ferguson Services",
      "url": "http://ferguson.com/licenses/LICENSE-1.0.html"
    }
  },
  "host": "localhost:8080",
  "basePath": "/level3-utils/svc",
  "tags": [],
  "schemes": [
    "https"
  ],
  "paths": {
    "/amq-producer/v1/add/": {
      "post": {
        "tags": [],
        "summary": "Add a producer to push message to AMQ address",
        "description": "Adds a producer to push message to AMQ address",
        "operationId": "addAMQProducer",
        "consumes": [
          "application/json"
        ],
        "produces": [
          "application/json"
        ],
        "parameters": [
          {
            "in": "body",
            "name": "addProducerRequest",
            "description": "Address for AMQ and flag determining whether topic/queue.",
            "schema": {
              "$ref": "#/definitions/addProducerRequest"
            }
          }
        ],
        "responses": {
          "200": {
            "description": "Request succeeded",
            "schema": {
              "$ref": "#/definitions/addResponse"
            }
          },
          "400": {
            "description": "Bad request",
            "schema": {
              "$ref": "#/definitions/validationResponse"
            }
          },
          "500": {
            "description": "Internal error",
            "schema": {
              "$ref": "#/definitions/baseResponse"
            }
          }
        }
      }
    },
    "/amq-producer/v1/remove/": {
      "delete": {
        "tags": [],
        "summary": "Delete camel route to detach AMQ Producer already configured to send messages to an amq address",
        "description": "Delete the AMQ producer",
        "operationId": "deleteAMQProducer",
        "parameters": [
          {
            "name": "address",
            "in": "query",
            "type": "string",
            "required": true,
            "description": "AMQ Address for which the producer is already added"
          },
          {
            "name": "transID",
            "in": "query",
            "type": "string",
            "required": false,
            "description": "Transaction ID for logging"
          }
        ],
        "responses": {
          "200": {
            "description": "Request succeeded",
            "schema": {
              "$ref": "#/definitions/deleteResponse"
            }
          },
          "400": {
            "description": "Bad request",
            "schema": {
              "$ref": "#/definitions/validationResponse"
            }
          },
          "500": {
            "description": "Internal Error",
            "schema": {
              "$ref": "#/definitions/baseResponse"
            }
          }
        }
      }
    },
    "/amq-producer/v1/send/": {
      "post": {
        "tags": [],
        "summary": "Send message to an amq address through Producer Route already configured to that address",
        "description": "Sends message to AMQ address through producer created",
        "operationId": "sendAMQMessage",
        "consumes": [
          "application/json"
        ],
        "produces": [
          "application/json"
        ],
        "parameters": [
          {
            "name": "address",
            "in": "query",
            "description": "AMQ address for which the producer is added",
            "required": true,
            "type": "string"
          },
          {
            "name": "filter",
            "in": "query",
            "description": "Added to determine whethr the message needs to add a header filter so that this can later be consumer by filter consumers",
            "required": false,
            "type": "string"
          },
          {
            "name": "transId",
            "in": "query",
            "type": "string",
            "required": false,
            "description": "Transaction ID for logging",
            "minLength": 1
          },
          {
            "name": "message",
            "in": "body",
            "description": "Any valid xml/json message",
            "schema": {
              "$ref": "#/definitions/sendMessage"
            }
          }
        ],
        "responses": {
          "200": {
            "description": "Request succeeded",
            "schema": {
              "$ref": "#/definitions/addResponse"
            }
          },
          "400": {
            "description": "Bad request",
            "schema": {
              "$ref": "#/definitions/validationResponse"
            }
          },
          "500": {
            "description": "Internal error",
            "schema": {
              "$ref": "#/definitions/baseResponse"
            }
          }
        }
      }
    },
    "/amq-consumer/v1/add/": {
      "post": {
        "tags": [],
        "summary": "Add a camel route dynamically to consume messages from an AMQ queue",
        "description": "Add a consumer to consume message",
        "operationId": "addConsumer",
        "consumes": [
          "application/json"
        ],
        "produces": [
          "application/json"
        ],
        "parameters": [
          {
            "in": "body",
            "name": "addConsumerRequest",
            "description": "Address for AMQ and filter determining whether a filter or unfiltered consumer",
            "schema": {
              "$ref": "#/definitions/addConsumerRequest"
            }
          }
        ],
        "responses": {
          "200": {
            "description": "Request succeeded",
            "schema": {
              "$ref": "#/definitions/addResponse"
            }
          },
          "400": {
            "description": "Bad request",
            "schema": {
              "$ref": "#/definitions/validationResponse"
            }
          },
          "500": {
            "description": "Internal error",
            "schema": {
              "$ref": "#/definitions/baseResponse"
            }
          }
        }
      }
    },
    "/amq-consumer/v1/remove/": {
      "delete": {
        "tags": [],
        "summary": "Delete camel route dynamically to detach AMQ Consumer already configured to accept messages from an amq queue",
        "description": "Delete the AMQ consumer",
        "operationId": "deleteConsumer",
        "parameters": [
          {
            "name": "queue",
            "in": "query",
            "type": "string",
            "required": true,
            "description": "Queue for which the consumer is added"
          },
          {
            "name": "transID",
            "in": "query",
            "type": "string",
            "required": false,
            "description": "Transaction ID for logging"
          }
        ],
        "responses": {
          "200": {
            "description": "Request succeeded",
            "schema": {
              "$ref": "#/definitions/deleteResponse"
            }
          },
          "400": {
            "description": "Bad request",
            "schema": {
              "$ref": "#/definitions/validationResponse"
            }
          },
          "500": {
            "description": "Internal Error",
            "schema": {
              "$ref": "#/definitions/baseResponse"
            }
          }
        }
      }
    }
  },
  "definitions": {
    "addProducerRequest": {
      "type": "object",
      "required": [
        "address"
      ],
      "properties": {
        "address": {
          "type": "string"
        },
        "isTopic": {
          "type": "string",
          "default": false
        },
        "transId": {
          "type": "string",
          "title": "Transaction Id",
          "description": "Transaction ID for logging",
          "minLength": 1,
          "example": [
            "90565912-885b-4b3f-8bab-82819b8d1e05"
          ]
        }
      }
    },
    "addConsumerRequest": {
      "type": "object",
      "required": [
        "queue"
      ],
      "properties": {
        "queue": {
          "type": "string",
          "minLength": 1,
          "maxLength":255
        },
        "filter": {
          "type": "string"
        },
        "transId": {
          "type": "string",
          "title": "Transaction Id",
          "description": "Transaction ID for logging",
          "minLength": 1,
          "maxLength":255,
          "example": [
            "90565912-885b-4b3f-8bab-82819b8d1e05"
          ]
        }
      }
    },
    "sendMessage": {
      "type": "object",
      "title": "sendMessageBody",
      "properties": {
        "transId": {
          "type": "string",
          "title": "Transaction Id",
          "description": "Transaction ID for logging",
          "minLength": 1,
          "example": [
            "90565912-885b-4b3f-8bab-82819b8d1e05"
          ]
        }
      }
    },
    "baseResponse": {
      "type": "object",
      "title": "Base Response",
      "properties": {
        "isError": {
          "type": "boolean",
          "title": "Error indicator",
          "description": "Flag to determine error or success",
          "example": false
        },
        "respCode": {
          "type": "string",
          "title": "Response Code",
          "description": "Response code",
          "minLength": 1,
          "example": [
            "AMQ conn error"
          ]
        },
        "respMsg": {
          "type": "string",
          "title": "Response Message",
          "description": "Human readable message related to respCode",
          "minLength": 1,
          "example": [
            "AMQ Connection Error"
          ]
        },
        "transId": {
          "type": "string",
          "title": "Transaction Id",
          "description": "Transaction ID for logging",
          "minLength": 1,
          "example": [
            "90565912-885b-4b3f-8bab-82819b8d1e05"
          ]
        }
      }
    },
    "addResponse": {
      "title": "Add Response",
      "allOf": [
        {
          "$ref": "#/definitions/baseResponse"
        }
      ]
    },
    "deleteResponse": {
      "title": "Delete Response",
      "allOf": [
        {
          "$ref": "#/definitions/baseResponse"
        }
      ]
    },
    "validationResponse": {
      "title": "Validation Response",
      "allOf": [
        {
          "$ref": "#/definitions/baseResponse"
        },
        {
          "type": "array",
          "items": {
            "type": "object",
            "properties": {
              "errorCode": {
                "type": "string",
                "title": "Error Code",
                "description": "Error Code related to field in error"
              },
              "errorMsg": {
                "type": "string",
                "title": "Error Message",
                "description": "Error Message related to Error Code"
              },
              "entity": {
                "type": "string",
                "title": "Business entity in error",
                "example": "address"
              },
              "field": {
                "type": "string",
                "title": "Field in error",
                "description": "Field within the Business Entity in Error"
              }
            }
          }
        }
      ]
    }
  }
}